…
Here, we are going to be using some data to see how cancer cell lines respond to various drug treatments.

Let's Get the Data
------------------

The data that I'll be using is originally from [GDSC](https://www.cancerrxgene.org/) and [CTRP](https://portals.broadinstitute.org/ctrp.v2.1/), but I placed files that were slightly modified already in the repo.

The first cell line info page was from [cellosaurus](https://web.expasy.org/cellosaurus/), the second breast cancer cell line info is from [a recent review](http://www.jcancer.org/v08p3131.htm) and shows the molecular classifications of the breast cancer cell lines. These files are also in the repo.

Shown below is some of the information these data files contain.

    ## [1] "GDSC"

    ## # A tibble: 224,510 x 18
    ##       X1 Drug_CCL Drug.name Drug.Id Cell.line.name Cosmic.sample.Id
    ##    <int> <chr>    <chr>       <int> <chr>                     <int>
    ##  1     1 17-AAG:… 17-AAG       1026 201T                    1287381
    ##  2     2 17-AAG:… 17-AAG       1026 22RV1                    924100
    ##  3     3 17-AAG:… 17-AAG       1026 23132-87                 910924
    ##  4     4 17-AAG:… 17-AAG       1026 42-MG-BA                 687561
    ##  5     5 17-AAG:… 17-AAG       1026 451Lu                   1287706
    ##  6     6 17-AAG:… 17-AAG       1026 5637                     687452
    ##  7     7 17-AAG:… 17-AAG       1026 639-V                    906798
    ##  8     8 17-AAG:… 17-AAG       1026 647-V                    906797
    ##  9     9 17-AAG:… 17-AAG       1026 697                      906800
    ## 10    10 17-AAG:… 17-AAG       1026 786-0                    905947
    ## # ... with 224,500 more rows, and 12 more variables:
    ## #   TCGA.classification <chr>, Tissue <chr>, Tissue.sub.type <chr>,
    ## #   IC50 <dbl>, AUC <dbl>, Max.conc <int>, RMSE <dbl>, Z.score <dbl>,
    ## #   Dataset.version <int>, Avg.IC50 <dbl>, Duplicated <chr>,
    ## #   Avg.IC50.dups <chr>

    ## [1] "CTRP"

    ## # A tibble: 395,263 x 23
    ##       X1 experiment_id conc_pts_fit fit_num_param p1_conf_int_high
    ##    <int>         <int>        <int>         <int>            <dbl>
    ##  1     1             1           16             3         -2.85e 5
    ##  2     2             1           16             3         -1.22e 4
    ##  3     3             1           16             3       -Inf      
    ##  4     4             1           11             3         -2.24e 5
    ##  5     5             1           16             3          3.03e 0
    ##  6     6             1           16             2          4.34e 0
    ##  7     7             1            8             2         -2.96e 5
    ##  8     8             1           11             3         -6.02e 4
    ##  9     9             1           11             3         -1.65e14
    ## 10    10             1           11             3         -5.54e 0
    ## # ... with 395,253 more rows, and 18 more variables:
    ## #   p1_conf_int_low <dbl>, p2_conf_int_high <dbl>, p2_conf_int_low <dbl>,
    ## #   p4_conf_int_high <dbl>, p4_conf_int_low <dbl>, p1_center <dbl>,
    ## #   p2_slope <dbl>, p3_total_decline <dbl>, p4_baseline <dbl>,
    ## #   apparent_ec50_umol <dbl>, pred_pv_high_conc <dbl>,
    ## #   area_under_curve <dbl>, master_cpd_id <int>, CCL_Name <chr>,
    ## #   Cellosaurus_Id <chr>, cpd_name <chr>, CCL_Drug <chr>, Avg_AUC <dbl>

    ## [1] "Cell Line Info"

    ## # A tibble: 5,655 x 16
    ##    Pick  Cell_Line_Name Dataset Tissue Condensed_Cance… Short_Condensed…
    ##    <chr> <chr>          <chr>   <chr>  <chr>            <chr>           
    ##  1 CVCL… PECAPJ34CLONE… Achill… aerod… aerodigestive t… aerodigestive t…
    ##  2 CVCL… 697            CCLE    haema… haematopoietic/… haematopoietic/…
    ##  3 CVCL… PECAPJ34CLONE… CTRPv2  aerod… aerodigestive t… aerodigestive t…
    ##  4 CVCL… Ca9-22         GDSC    aerod… aerodigestive t… aerodigestive t…
    ##  5 CVCL… BHY            Achill… aerod… aerodigestive t… aerodigestive t…
    ##  6 CVCL… YD38           Achill… aerod… aerodigestive t… aerodigestive t…
    ##  7 CVCL… 5637           CCLE    bladd… bladder cancer   other cancer    
    ##  8 CVCL… 1321N1         CCLE    nervo… nervous system … nervous system …
    ##  9 CVCL… BHY            CTRPv2  aerod… aerodigestive t… aerodigestive t…
    ## 10 CVCL… YD38           CTRPv2  aerod… aerodigestive t… aerodigestive t…
    ## # ... with 5,645 more rows, and 10 more variables: Diseases <chr>,
    ## #   Ethnicity <chr>, Simple_Ethnicity <chr>, Age_years <chr>,
    ## #   Gender <chr>, GDSC_Drug_Data <chr>, Names <chr>, BioSampleID <chr>,
    ## #   Duplicated_within_study <chr>, CCLE_Drug_Data <chr>

    ## [1] "Breast cancer cell line info"

    ## # A tibble: 85 x 11
    ##    `Cell lines` ER    PR    HER2  `BRCA1\nMutatio… Subtype Series
    ##    <chr>        <chr> <chr> <chr> <chr>            <chr>   <chr> 
    ##  1 "Mutation\"" Subt… Seri… Basi… Tumor            Source  Refer…
    ##  2 BT483        +     +/-   -     WT               LA      BT    
    ##  3 CAMA1        +     +/-   -     WT               LA      <NA>  
    ##  4 EFM19        +     +     -     ND               LA      EFM   
    ##  5 HCC1428      +     +     -     ND               LA      HCC   
    ##  6 HCC712       +     +/-   -     ND               LA      HCC   
    ##  7 IBEP2        +     -     -     ND               LA      <NA>  
    ##  8 KPL1         +     -     -     ND               LA      <NA>  
    ##  9 LY2          +     -     -     ND               LA      <NA>  
    ## 10 MCF7         +     +     -     WT               LA      MCF   
    ## # ... with 75 more rows, and 4 more variables: `Basic Medium` <chr>,
    ## #   Tumor <chr>, Source <chr>, References <chr>

Cleaning and Subsetting the data
--------------------------------

We now need to combine the info files with the drug data, and subset to just the breast cancer cell lines

Here is how the data looks once cleaned

``` r
GDSC_breast
```

    ## # A tibble: 11,199 x 16
    ##    Drug.name Drug.Id Cell.line.name Tissue Avg.IC50 CCL_Name ER    PR   
    ##    <chr>       <int> <chr>          <chr>     <dbl> <chr>    <chr> <chr>
    ##  1 17-AAG       1026 AU565          breast   -2.24  AU565    -     -    
    ##  2 17-AAG       1026 BT-20          breast   -0.867 BT20     -     -    
    ##  3 17-AAG       1026 BT-474         breast   -3.32  BT474    +     +    
    ##  4 17-AAG       1026 BT-483         breast    0.357 BT483    +     +/-  
    ##  5 17-AAG       1026 BT-549         breast   -1.86  BT549    -     -    
    ##  6 17-AAG       1026 CAL-120        breast   -0.506 CAL120   -     -    
    ##  7 17-AAG       1026 CAL-51         breast   -3.71  CAL51    -     -    
    ##  8 17-AAG       1026 CAL-85-1       breast    2.51  CAL851   -     -    
    ##  9 17-AAG       1026 COLO-824       breast   -1.97  COLO824  <NA>  <NA> 
    ## 10 17-AAG       1026 DU-4475        breast   -1.50  DU4475   -     -    
    ## # ... with 11,189 more rows, and 8 more variables: HER2 <chr>,
    ## #   `BRCA1\nMutation` <chr>, Subtype <chr>, Series <chr>, `Basic
    ## #   Medium` <chr>, Tumor <chr>, Source <chr>, References <chr>

``` r
CTRP_breast
```

    ## # A tibble: 82,241 x 15
    ##    CCL_Name Tissue Cellosaurus_Id cpd_name Avg_AUC ER    PR    HER2 
    ##    <chr>    <chr>  <chr>          <chr>      <dbl> <chr> <chr> <chr>
    ##  1 KPL1     breast CVCL_2094      CIL55       15.7 +     -     -    
    ##  2 KPL1     breast CVCL_2094      CIL55       15.7 +     -     -    
    ##  3 KPL1     breast CVCL_2094      BRD4132     16.9 +     -     -    
    ##  4 KPL1     breast CVCL_2094      BRD4132     16.9 +     -     -    
    ##  5 KPL1     breast CVCL_2094      BRD6340     15.9 +     -     -    
    ##  6 KPL1     breast CVCL_2094      BRD6340     15.9 +     -     -    
    ##  7 KPL1     breast CVCL_2094      ML006       14.2 +     -     -    
    ##  8 KPL1     breast CVCL_2094      ML006       14.2 +     -     -    
    ##  9 KPL1     breast CVCL_2094      Bax cha…    12.6 +     -     -    
    ## 10 KPL1     breast CVCL_2094      Bax cha…    12.6 +     -     -    
    ## # ... with 82,231 more rows, and 7 more variables:
    ## #   `BRCA1\nMutation` <chr>, Subtype <chr>, Series <chr>, `Basic
    ## #   Medium` <chr>, Tumor <chr>, Source <chr>, References <chr>
…
Those 12 values will be manually curated. The top 10 rows of the final cleaned up data frame without any missing NA values and with the relevant columns selected is displayed below for GDSC and CTRP respectively:

    ## # A tibble: 11,199 x 4
    ##    cpd_name CCL_Name Subtype Avg_IC50
    ##    <chr>    <chr>    <chr>      <dbl>
    ##  1 17-AAG   AU565    H         -2.24 
    ##  2 17-AAG   BT20     TNA       -0.867
    ##  3 17-AAG   BT474    LB        -3.32 
    ##  4 17-AAG   BT483    LA         0.357
    ##  5 17-AAG   BT549    TNB       -1.86 
    ##  6 17-AAG   CAL120   TNB       -0.506
    ##  7 17-AAG   CAL51    TNB       -3.71 
    ##  8 17-AAG   CAL851   TNB        2.51 
    ##  9 17-AAG   COLO824  TN        -1.97 
    ## 10 17-AAG   DU4475   TNA       -1.50 
    ## # ... with 11,189 more rows

    ## # A tibble: 16,842 x 4
    ##    cpd_name            CCL_Name Subtype Avg_AUC
    ##    <chr>               <chr>    <chr>     <dbl>
    ##  1 CIL55               KPL1     LA         15.7
    ##  2 BRD4132             KPL1     LA         16.9
    ##  3 BRD6340             KPL1     LA         15.9
    ##  4 ML006               KPL1     LA         14.2
    ##  5 Bax channel blocker KPL1     LA         12.6
    ##  6 BRD9876             KPL1     LA         16.6
    ##  7 tretinoin           KPL1     LA         14.2
    ##  8 betulinic acid      KPL1     LA         14.0
    ##  9 gossypol            KPL1     LA         13.7
    ## 10 chlorambucil        KPL1     LA         13.9
    ## # ... with 16,832 more rows
…
Side-note, if anyone knows why the caption feature on kable doesn't seem to print anything, let me know.

Comparing Cell Line Response Across BC subtypes
-----------------------------------------------

Because of the low n-values, we will compare mean response between TNBC cells to non-TNBC cells.

    ## # A tibble: 11,199 x 5
    ##    cpd_name CCL_Name Subtype Avg_IC50 TNBC 
    ##    <chr>    <chr>    <chr>      <dbl> <chr>
    ##  1 17-AAG   AU565    H         -2.24  no   
    ##  2 17-AAG   BT20     TNA       -0.867 yes  
    ##  3 17-AAG   BT474    LB        -3.32  no   
    ##  4 17-AAG   BT483    LA         0.357 no   
    ##  5 17-AAG   BT549    TNB       -1.86  yes  
    ##  6 17-AAG   CAL120   TNB       -0.506 yes  
    ##  7 17-AAG   CAL51    TNB       -3.71  yes  
    ##  8 17-AAG   CAL851   TNB        2.51  yes  
    ##  9 17-AAG   COLO824  TN        -1.97  yes  
    ## 10 17-AAG   DU4475   TNA       -1.50  yes  
    ## # ... with 11,189 more rows

    ## # A tibble: 16,842 x 5
    ##    cpd_name            CCL_Name Subtype Avg_AUC TNBC 
    ##    <chr>               <chr>    <chr>     <dbl> <chr>
    ##  1 CIL55               KPL1     LA         15.7 no   
    ##  2 BRD4132             KPL1     LA         16.9 no   
    ##  3 BRD6340             KPL1     LA         15.9 no   
    ##  4 ML006               KPL1     LA         14.2 no   
    ##  5 Bax channel blocker KPL1     LA         12.6 no   
    ##  6 BRD9876             KPL1     LA         16.6 no   
    ##  7 tretinoin           KPL1     LA         14.2 no   
    ##  8 betulinic acid      KPL1     LA         14.0 no   
    ##  9 gossypol            KPL1     LA         13.7 no   
    ## 10 chlorambucil        KPL1     LA         13.9 no   
    ## # ... with 16,832 more rows
…
